Pre-process
…
Geometry type: POINT
Dimension:     XYZ
Bounding box:  xmin: -77.02292 ymin: 38.90625 xmax: -77.02292 ymax: 38.90625
z_range:       zmin: 0 zmax: 0
Geodetic CRS:  WGS 84
Reading layer `referencepoint' from data source 
  `/workspaces/report-sinking-cities/data/src/Yangon_TD033_referencePoint.kml' 
  using driver `LIBKML'
Simple feature collection with 1 feature and 12 fields
Geometry type: POINT
Dimension:     XYZ
Bounding box:  xmin: 96.13542 ymin: 16.95708 xmax: 96.13542 ymax: 16.95708
z_range:       zmin: 0 zmax: 0
Geodetic CRS:  WGS 84
# A tibble: 48 × 3
   city        ref_lon ref_lat
   <chr>         <dbl>   <dbl>
 1 Abidjan       -4.05    5.46
 2 Ahmedabad     72.7    23.1 
 3 Alexandria    29.8    31.0 
 4 Bangkok      101.     13.8 
 5 Barcelona      2.13   41.4 
 6 BuenosAires  -58.5   -34.6 
 7 Chennai       80.1    13.2 
 8 Chittagong    91.8    22.4 
 9 Dalian       122.     39.3 
10 DaresSalaam   39.2    -6.84
# ℹ 38 more rows
…
